…
 [1] 4 2 4 2 5 0 1 3 2 6 3 1 4 8 5
k= 175 
 [1] 2 4 2 5 7 1 3 2 6 5 1 4 8 5 3
k= 176 
 [1] 4 2 5 7 4 3 2 6 5 2 4 8 5 3 4
k= 177 
 [1] 2 5 7 4 5 2 6 5 2 5 8 5 3 4 3
k= 178 
 [1] 5 7 4 5 1 6 5 2 5 5 5 3 4 3 5
k= 179 
 [1] 7 4 5 1 2 5 2 5 5 0 3 4 3 5 4
k= 180 
 [1] 4 5 1 2 2 2 5 5 0 4 4 3 5 4 1
make: Nothing to be done for `all'.
# A tibble: 66 × 3
   ref.date   ageGroup  log_sigma
   <date>     <fct>         <dbl>
 1 2011-02-01 <65 years     -5.61
 2 2011-02-01 65+ years     -5.61
 3 2011-04-01 <65 years     -5.38
 4 2011-04-01 65+ years     -5.38
 5 2011-06-01 <65 years     -5.65
 6 2011-06-01 65+ years     -5.65
 7 2013-03-01 <65 years     -5.68
 8 2013-03-01 65+ years     -5.68
 9 2013-08-01 <65 years     -4.28
10 2013-08-01 65+ years     -4.28
11 2013-09-01 <65 years     -6   
12 2013-09-01 65+ years     -6   
13 2013-10-01 <65 years     -4.19
14 2013-10-01 65+ years     -4.19
15 2014-05-01 <65 years     -6.00
16 2014-05-01 65+ years     -6.00
17 2014-07-01 <65 years     -5.83
18 2014-07-01 65+ years     -5.83
19 2017-08-01 <65 years     -6   
20 2017-08-01 65+ years     -6   
21 2017-09-01 <65 years     -4.20
22 2017-09-01 65+ years     -4.20
23 2017-10-01 <65 years     -6   
24 2017-10-01 65+ years     -6   
25 2017-11-01 <65 years     -6   
26 2017-11-01 65+ years     -6   
27 2017-12-01 <65 years     -6   
28 2017-12-01 65+ years     -6   
# ℹ 38 more rows
…
